type,value,
base_theme,1,
theme_boost_header_color,-733762,
theme_text_header_1_line,-8809324,
theme_text_header_2_line,-10981771,
theme_statuses_color,-3117,
theme_link_color,-12030336,
theme_icons_color,-2398081,
pref_color_background,-923705,
pref_color_navigation_bar,true,
pref_color_status_bar,true,
theme_accent,-2398081,
theme_text_color,-12030336,
theme_primary,-733762,
